C:\Temp\workspace\PaymentCenter\src\test\java\com\paymentcenter\testcases\Payments.java
C:\Temp\workspace\PaymentCenter\src\test\java\com\paymentcenter\testcases\runTest.java
C:\Temp\workspace\PaymentCenter\src\test\java\com\paymentcenter\testcases\Login.java
C:\Temp\workspace\PaymentCenter\src\test\java\Utility\UtilityFunctions.java
C:\Temp\workspace\PaymentCenter\src\test\java\com\paymentcenter\testcases\Hooks.java
